v_reduz.vcd
$date
  Thu Nov 13 17:34:30 2014
$end
$version
  GHDL v0
$end
$timescale
  1 fs
$end
$var reg 1 ! rel $end
$var reg 1 " rst $end
$var reg 1 # r_nxt $end
$var reg 1 $ r_rdy $end
$var reg 1 % r_eof $end
$var reg 1 & w_sel $end
$var reg 1 ' w_rdy $end
$var reg 32 ( entrada[31:0] $end
$var reg 32 ) saida[31:0] $end
$scope module u_read_input $end
$var reg 1 * rst $end
$var reg 1 + rel $end
$var reg 32 , data[31:0] $end
$var reg 1 - eof $end
$upscope $end
$scope module u_reduz $end
$var reg 1 . rst $end
$var reg 1 / rel $end
$var reg 32 0 valor[31:0] $end
$var reg 32 1 saida[31:0] $end
$var reg 1 2 sel $end
$var reg 3 3 ea[2:0] $end
$var reg 3 4 pe[2:0] $end
$var reg 5 5 ender[4:0] $end
$comment ctrl_word is not handled $end
$var reg 32 6 alfa[31:0] $end
$var reg 32 7 beta[31:0] $end
$var reg 32 8 delta[31:0] $end
$var reg 32 9 inp_beta[31:0] $end
$var reg 32 : init[31:0] $end
$var reg 32 ; opcode[31:0] $end
$var reg 32 < num[31:0] $end
$var reg 1 = ld_alfa $end
$var reg 1 > ld_beta $end
$var reg 1 ? ld_oper $end
$var reg 1 @ clr_beta $end
$var reg 1 A ld_tam $end
$var reg 1 B en_dec $end
$var reg 1 C sync $end
$var reg 1 D fim $end
$var reg 1 E ld_delta $end
$scope module u_beta_reg $end
$var reg 1 F rel $end
$var reg 1 G rst $end
$var reg 1 H ld $end
$var reg 32 I d[31:0] $end
$var reg 32 J q[31:0] $end
$var reg 32 K value[31:0] $end
$upscope $end
$scope module u_ula $end
$var reg 32 L alfa[31:0] $end
$var reg 32 M beta[31:0] $end
$var reg 3 N oper[2:0] $end
$var reg 32 O delta[31:0] $end
$upscope $end
$scope module u_delta_reg $end
$var reg 1 P rel $end
$var reg 1 Q rst $end
$var reg 1 R ld $end
$var reg 32 S d[31:0] $end
$var reg 32 T q[31:0] $end
$var reg 32 U value[31:0] $end
$upscope $end
$scope module u_oper_reg $end
$var reg 1 V rel $end
$var reg 1 W rst $end
$var reg 1 X ld $end
$var reg 32 Y d[31:0] $end
$var reg 32 Z q[31:0] $end
$var reg 32 [ value[31:0] $end
$upscope $end
$scope module u_tam_dec $end
$var reg 1 \ rel $end
$var reg 1 ] rst $end
$var reg 1 ^ ld $end
$var reg 1 _ en $end
$var reg 32 ` d[31:0] $end
$var reg 32 a q[31:0] $end
$var reg 32 b count[31:0] $end
$upscope $end
$scope module u_st_reg $end
$var reg 1 c rel $end
$var reg 1 d rst $end
$var reg 1 e ld $end
$var reg 3 f d[2:0] $end
$var reg 3 g q[2:0] $end
$var reg 3 h value[2:0] $end
$upscope $end
$upscope $end
$scope module u_write_output $end
$var reg 1 i rst $end
$var reg 1 j rel $end
$var reg 1 k sel $end
$var reg 32 l data[31:0] $end
$upscope $end
$enddefinitions $end
#0
1!
0"
0#
0$
0%
0&
0'
b01010101010101011010101010101010 (
b00000000000000000000000000000000 )
0*
1+
b01010101010101011010101010101010 ,
0-
0.
1/
b01010101010101011010101010101010 0
b00000000000000000000000000000000 1
02
b000 3
b000 4
b00011 5
b01010101010101011010101010101010 6
b00000000000000000000000000000000 7
b01010101010101011010101010101010 8
b01010101010101011010101010101010 9
b00000000000000000000000000000000 :
b00000000000000000000000000000000 ;
b00000000000000000000000000000000 <
0=
0>
0?
0@
0A
0B
1C
1D
0E
1F
0G
0H
b01010101010101011010101010101010 I
b00000000000000000000000000000000 J
b00000000000000000000000000000000 K
b01010101010101011010101010101010 L
b00000000000000000000000000000000 M
b000 N
b01010101010101011010101010101010 O
1P
0Q
0R
b01010101010101011010101010101010 S
b00000000000000000000000000000000 T
b00000000000000000000000000000000 U
1V
0W
0X
b01010101010101011010101010101010 Y
b00000000000000000000000000000000 Z
b00000000000000000000000000000000 [
1\
0]
0^
0_
b01010101010101011010101010101010 `
b00000000000000000000000000000000 a
b00000000000000000000000000000000 b
1c
0d
1e
b000 f
b000 g
b000 h
0i
1j
0k
b00000000000000000000000000000000 l
#250000
1"
1*
1.
1G
1Q
1W
1]
1d
1i
#500000
0!
0+
0/
0F
0P
0V
0\
0c
0j
#1000000
1!
1+
1/
1F
1P
1V
1\
1c
1j
#1500000
0!
0+
0/
0F
0P
0V
0\
0c
0j
#2000000
1!
1+
1/
1F
1P
1V
1\
1c
1j
#2500000
0!
0+
0/
0F
0P
0V
0\
0c
0j
#3000000
1!
b00000000000000000000000000000001 (
1+
b00000000000000000000000000000001 ,
1/
b00000000000000000000000000000001 0
b001 4
b00001 5
b00000000000000000000000000000001 6
b00000000000000000000000000000001 8
b00000000000000000000000000000001 9
0C
1F
b00000000000000000000000000000001 I
b00000000000000000000000000000001 L
b00000000000000000000000000000001 O
1P
b00000000000000000000000000000001 S
1V
b00000000000000000000000000000001 Y
1\
b00000000000000000000000000000001 `
1c
b001 f
1j
#3500000
0!
0+
0/
0F
0P
0V
0\
0c
0j
#4000000
1!
b00000000000000000000000000000100 (
1+
b00000000000000000000000000000100 ,
1/
b00000000000000000000000000000100 0
b001 3
b010 4
b00101 5
b00000000000000000000000000000100 6
b00000000000000000000000000000100 8
b00000000000000000000000000000000 9
1?
1@
1F
b00000000000000000000000000000000 I
b00000000000000000000000000000100 L
b00000000000000000000000000000100 O
1P
b00000000000000000000000000000100 S
1V
1X
b00000000000000000000000000000100 Y
1\
b00000000000000000000000000000100 `
1c
b010 f
b001 g
b001 h
1j
#4500000
0!
0+
0/
0F
0P
0V
0\
0c
0j
#5000000
1!
b01010101010101011010101010101011 (
1+
b01010101010101011010101010101011 ,
1/
b01010101010101011010101010101011 0
b010 3
b011 4
b01000 5
b01010101010101011010101010101011 6
b00000000000000000000000000000000 8
b00000000000000000000000000000000 9
b00000000000000000000000000000001 :
b00000000000000000000000000000100 ;
b01010101010101011010101010101011 <
0?
0@
1A
0D
1F
b00000000000000000000000000000000 I
b01010101010101011010101010101011 L
b100 N
b00000000000000000000000000000000 O
1P
b00000000000000000000000000000000 S
1V
0X
b01010101010101011010101010101011 Y
b00000000000000000000000000000100 Z
b00000000000000000000000000000100 [
1\
1^
b01010101010101011010101010101011 `
b01010101010101011010101010101011 a
b01010101010101011010101010101011 b
1c
b011 f
b010 g
b010 h
1j
#5500000
0!
0+
0/
0F
0P
0V
0\
0c
0j
#6000000
1!
b01010101010101011010101010101100 (
1+
b01010101010101011010101010101100 ,
1/
b01010101010101011010101010101100 0
b011 3
b01100 5
b01010101010101011010101010101100 6
1>
0A
1B
1F
1H
b01010101010101011010101010101100 L
1P
1V
b01010101010101011010101010101100 Y
1\
0^
1_
b01010101010101011010101010101100 `
1c
b011 g
b011 h
1j
#6500000
0!
0+
0/
0F
0P
0V
0\
0c
0j
#7000000
1!
b01010101010101011010101010101101 (
1+
b01010101010101011010101010101101 ,
1/
b01010101010101011010101010101101 0
b01010101010101011010101010101101 6
b01010101010101011010101010101010 <
1F
b01010101010101011010101010101101 L
1P
1V
b01010101010101011010101010101101 Y
1\
b01010101010101011010101010101101 `
b01010101010101011010101010101010 a
b01010101010101011010101010101010 b
1c
1j
#7500000
0!
0+
0/
0F
0P
0V
0\
0c
0j
#8000000
1!
b01010101010101010101010101010101 (
1+
b01010101010101010101010101010101 ,
1/
b01010101010101010101010101010101 0
b01010101010101010101010101010101 6
b01010101010101011010101010101001 <
1F
b01010101010101010101010101010101 L
1P
1V
b01010101010101010101010101010101 Y
1\
b01010101010101010101010101010101 `
b01010101010101011010101010101001 a
b01010101010101011010101010101001 b
1c
1j
#8500000
0!
0+
0/
0F
0P
0V
0\
0c
0j
#9000000
1!
b01010101010101011010101010101010 (
1+
b01010101010101011010101010101010 ,
1/
b01010101010101011010101010101010 0
b01110 5
b01010101010101011010101010101010 6
b01010101010101011010101010101000 <
1C
1F
b01010101010101011010101010101010 L
1P
1V
b01010101010101011010101010101010 Y
1\
b01010101010101011010101010101010 `
b01010101010101011010101010101000 a
b01010101010101011010101010101000 b
1c
1j
#9500000
0!
0+
0/
0F
0P
0V
0\
0c
0j
#10000000
1!
b00000000000000000000000000000010 (
1+
b00000000000000000000000000000010 ,
1/
b00000000000000000000000000000010 0
b01100 5
b00000000000000000000000000000010 6
b01010101010101011010101010100111 <
0C
1F
b00000000000000000000000000000010 L
1P
1V
b00000000000000000000000000000010 Y
1\
b00000000000000000000000000000010 `
b01010101010101011010101010100111 a
b01010101010101011010101010100111 b
1c
1j
#10500000
0!
0+
0/
0F
0P
0V
0\
0c
0j
#11000000
1!
b00000000000000000000000000000011 (
1+
b00000000000000000000000000000011 ,
1/
b00000000000000000000000000000011 0
b00000000000000000000000000000011 6
b01010101010101011010101010100110 <
1F
b00000000000000000000000000000011 L
1P
1V
b00000000000000000000000000000011 Y
1\
b00000000000000000000000000000011 `
b01010101010101011010101010100110 a
b01010101010101011010101010100110 b
1c
1j
#11500000
0!
0+
0/
0F
0P
0V
0\
0c
0j
#12000000
1!
b01010101010101011010101010101010 (
1+
b01010101010101011010101010101010 ,
1/
b01010101010101011010101010101010 0
b01110 5
b01010101010101011010101010101010 6
b01010101010101011010101010100101 <
1C
1F
b01010101010101011010101010101010 L
1P
1V
b01010101010101011010101010101010 Y
1\
b01010101010101011010101010101010 `
b01010101010101011010101010100101 a
b01010101010101011010101010100101 b
1c
1j
#12500000
0!
0+
0/
0F
0P
0V
0\
0c
0j
#13000000
1!
1+
1/
b01010101010101011010101010100100 <
1F
1P
1V
1\
b01010101010101011010101010100100 a
b01010101010101011010101010100100 b
1c
1j
#13500000
0!
0+
0/
0F
0P
0V
0\
0c
0j
#14000000
1!
b10101010101010100101010101010101 (
1+
b10101010101010100101010101010101 ,
1/
b10101010101010100101010101010101 0
b01100 5
b10101010101010100101010101010101 6
b01010101010101011010101010100011 <
0C
1F
b10101010101010100101010101010101 L
1P
1V
b10101010101010100101010101010101 Y
1\
b10101010101010100101010101010101 `
b01010101010101011010101010100011 a
b01010101010101011010101010100011 b
1c
1j
#14500000
0!
0+
0/
0F
0P
0V
0\
0c
0j
#15000000
1!
b01010101010101011010101010101010 (
1+
b01010101010101011010101010101010 ,
1/
b01010101010101011010101010101010 0
b01110 5
b01010101010101011010101010101010 6
b01010101010101011010101010100010 <
1C
1F
b01010101010101011010101010101010 L
1P
1V
b01010101010101011010101010101010 Y
1\
b01010101010101011010101010101010 `
b01010101010101011010101010100010 a
b01010101010101011010101010100010 b
1c
1j
#15500000
0!
0+
0/
0F
0P
0V
0\
0c
0j
#16000000
1!
1+
1/
b01010101010101011010101010100001 <
1F
1P
1V
1\
b01010101010101011010101010100001 a
b01010101010101011010101010100001 b
1c
1j
#16500000
0!
0+
0/
0F
0P
0V
0\
0c
0j
#17000000
1!
b00000000000000000000000000000011 (
1+
b00000000000000000000000000000011 ,
1/
b00000000000000000000000000000011 0
b01100 5
b00000000000000000000000000000011 6
b01010101010101011010101010100000 <
0C
1F
b00000000000000000000000000000011 L
1P
1V
b00000000000000000000000000000011 Y
1\
b00000000000000000000000000000011 `
b01010101010101011010101010100000 a
b01010101010101011010101010100000 b
1c
1j
#17500000
0!
0+
0/
0F
0P
0V
0\
0c
0j
#18000000
1!
b00000000000000000000000000000010 (
1+
b00000000000000000000000000000010 ,
1/
b00000000000000000000000000000010 0
b00000000000000000000000000000010 6
b01010101010101011010101010011111 <
1F
b00000000000000000000000000000010 L
1P
1V
b00000000000000000000000000000010 Y
1\
b00000000000000000000000000000010 `
b01010101010101011010101010011111 a
b01010101010101011010101010011111 b
1c
1j
#18500000
0!
0+
0/
0F
0P
0V
0\
0c
0j
#19000000
1!
b01000100010001000100010001000100 (
1+
b01000100010001000100010001000100 ,
1/
b01000100010001000100010001000100 0
b01000100010001000100010001000100 6
b01010101010101011010101010011110 <
1F
b01000100010001000100010001000100 L
1P
1V
b01000100010001000100010001000100 Y
1\
b01000100010001000100010001000100 `
b01010101010101011010101010011110 a
b01010101010101011010101010011110 b
1c
1j
#19500000
0!
0+
0/
0F
0P
0V
0\
0c
0j
#20000000
1!
b10001000100010001000100010001000 (
1+
b10001000100010001000100010001000 ,
1/
b10001000100010001000100010001000 0
b10001000100010001000100010001000 6
b01010101010101011010101010011101 <
1F
b10001000100010001000100010001000 L
1P
1V
b10001000100010001000100010001000 Y
1\
b10001000100010001000100010001000 `
b01010101010101011010101010011101 a
b01010101010101011010101010011101 b
1c
1j
#20500000
0!
0+
0/
0F
0P
0V
0\
0c
0j
#21000000
1!
b01010101010101011010101010101010 (
1+
b01010101010101011010101010101010 ,
1/
b01010101010101011010101010101010 0
b01110 5
b01010101010101011010101010101010 6
b01010101010101011010101010011100 <
1C
1F
b01010101010101011010101010101010 L
1P
1V
b01010101010101011010101010101010 Y
1\
b01010101010101011010101010101010 `
b01010101010101011010101010011100 a
b01010101010101011010101010011100 b
1c
1j
#21500000
0!
0+
0/
0F
0P
0V
0\
0c
0j
#22000000
1!
b00000000000000000000000000000100 (
1+
b00000000000000000000000000000100 ,
1/
b00000000000000000000000000000100 0
b01100 5
b00000000000000000000000000000100 6
b01010101010101011010101010011011 <
0C
1F
b00000000000000000000000000000100 L
1P
1V
b00000000000000000000000000000100 Y
1\
b00000000000000000000000000000100 `
b01010101010101011010101010011011 a
b01010101010101011010101010011011 b
1c
1j
#22500000
0!
0+
0/
0F
0P
0V
0\
0c
0j
#23000000
1!
b00000000000000000000000000000010 (
1+
b00000000000000000000000000000010 ,
1/
b00000000000000000000000000000010 0
b00000000000000000000000000000010 6
b01010101010101011010101010011010 <
1F
b00000000000000000000000000000010 L
1P
1V
b00000000000000000000000000000010 Y
1\
b00000000000000000000000000000010 `
b01010101010101011010101010011010 a
b01010101010101011010101010011010 b
1c
1j
#23500000
0!
0+
0/
0F
0P
0V
0\
0c
0j
#24000000
1!
b00000000000000000000000000000100 (
1+
b00000000000000000000000000000100 ,
1/
b00000000000000000000000000000100 0
b00000000000000000000000000000100 6
b01010101010101011010101010011001 <
1F
b00000000000000000000000000000100 L
1P
1V
b00000000000000000000000000000100 Y
1\
b00000000000000000000000000000100 `
b01010101010101011010101010011001 a
b01010101010101011010101010011001 b
1c
1j
#24500000
0!
0+
0/
0F
0P
0V
0\
0c
0j
#25000000
1!
1+
1/
b01010101010101011010101010011000 <
1F
1P
1V
1\
b01010101010101011010101010011000 a
b01010101010101011010101010011000 b
1c
1j
#25500000
0!
0+
0/
0F
0P
0V
0\
0c
0j
#26000000
1!
b01010101010101011010101010101010 (
1+
b01010101010101011010101010101010 ,
1/
b01010101010101011010101010101010 0
b01110 5
b01010101010101011010101010101010 6
b01010101010101011010101010010111 <
1C
1F
b01010101010101011010101010101010 L
1P
1V
b01010101010101011010101010101010 Y
1\
b01010101010101011010101010101010 `
b01010101010101011010101010010111 a
b01010101010101011010101010010111 b
1c
1j
#26500000
0!
0+
0/
0F
0P
0V
0\
0c
0j
#27000000
1!
b00000000000000000000000000000000 (
1+
b00000000000000000000000000000000 ,
1/
b00000000000000000000000000000000 0
b01100 5
b00000000000000000000000000000000 6
b01010101010101011010101010010110 <
0C
1F
b00000000000000000000000000000000 L
1P
1V
b00000000000000000000000000000000 Y
1\
b00000000000000000000000000000000 `
b01010101010101011010101010010110 a
b01010101010101011010101010010110 b
1c
1j
#27500000
0!
0+
0/
0F
0P
0V
0\
0c
0j
#28000000
1!
b00000000000000000000000000000010 (
1+
b00000000000000000000000000000010 ,
1/
b00000000000000000000000000000010 0
b00000000000000000000000000000010 6
b01010101010101011010101010010101 <
1F
b00000000000000000000000000000010 L
1P
1V
b00000000000000000000000000000010 Y
1\
b00000000000000000000000000000010 `
b01010101010101011010101010010101 a
b01010101010101011010101010010101 b
1c
1j
#28500000
0!
0+
0/
0F
0P
0V
0\
0c
0j
#29000000
1!
b01010101010101011010101010101010 (
1+
b01010101010101011010101010101010 ,
1/
b01010101010101011010101010101010 0
b01110 5
b01010101010101011010101010101010 6
b01010101010101011010101010010100 <
1C
1F
b01010101010101011010101010101010 L
1P
1V
b01010101010101011010101010101010 Y
1\
b01010101010101011010101010101010 `
b01010101010101011010101010010100 a
b01010101010101011010101010010100 b
1c
1j
#29500000
0!
0+
0/
0F
0P
0V
0\
0c
0j
#30000000
1!
b10101010101010100101010101010101 (
1+
b10101010101010100101010101010101 ,
1/
b10101010101010100101010101010101 0
b01100 5
b10101010101010100101010101010101 6
b01010101010101011010101010010011 <
0C
1F
b10101010101010100101010101010101 L
1P
1V
b10101010101010100101010101010101 Y
1\
b10101010101010100101010101010101 `
b01010101010101011010101010010011 a
b01010101010101011010101010010011 b
1c
1j
#30500000
0!
0+
0/
0F
0P
0V
0\
0c
0j
#31000000
1!
1%
b01010101010101011010101010101010 (
1+
b01010101010101011010101010101010 ,
1-
1/
b01010101010101011010101010101010 0
b01110 5
b01010101010101011010101010101010 6
b01010101010101011010101010010010 <
1C
1F
b01010101010101011010101010101010 L
1P
1V
b01010101010101011010101010101010 Y
1\
b01010101010101011010101010101010 `
b01010101010101011010101010010010 a
b01010101010101011010101010010010 b
1c
1j
#31500000
0!
0+
0/
0F
0P
0V
0\
0c
0j
#32000000
1!
1+
1/
b01010101010101011010101010010001 <
1F
1P
1V
1\
b01010101010101011010101010010001 a
b01010101010101011010101010010001 b
1c
1j
#32500000
0!
0+
0/
0F
0P
0V
0\
0c
0j
#33000000
1!
1+
1/
b01010101010101011010101010010000 <
1F
1P
1V
1\
b01010101010101011010101010010000 a
b01010101010101011010101010010000 b
1c
1j
#33500000
0!
0+
0/
0F
0P
0V
0\
0c
0j
#34000000
1!
1+
1/
b01010101010101011010101010001111 <
1F
1P
1V
1\
b01010101010101011010101010001111 a
b01010101010101011010101010001111 b
1c
1j
#34500000
0!
0+
0/
0F
0P
0V
0\
0c
0j
#35000000
1!
1+
1/
b01010101010101011010101010001110 <
1F
1P
1V
1\
b01010101010101011010101010001110 a
b01010101010101011010101010001110 b
1c
1j
#35500000
0!
0+
0/
0F
0P
0V
0\
0c
0j
#36000000
1!
1+
1/
b01010101010101011010101010001101 <
1F
1P
1V
1\
b01010101010101011010101010001101 a
b01010101010101011010101010001101 b
1c
1j
#36500000
0!
0+
0/
0F
0P
0V
0\
0c
0j
#37000000
1!
1+
1/
b01010101010101011010101010001100 <
1F
1P
1V
1\
b01010101010101011010101010001100 a
b01010101010101011010101010001100 b
1c
1j
#37500000
0!
0+
0/
0F
0P
0V
0\
0c
0j
#38000000
1!
1+
1/
b01010101010101011010101010001011 <
1F
1P
1V
1\
b01010101010101011010101010001011 a
b01010101010101011010101010001011 b
1c
1j
#38500000
0!
0+
0/
0F
0P
0V
0\
0c
0j
#39000000
1!
1+
1/
b01010101010101011010101010001010 <
1F
1P
1V
1\
b01010101010101011010101010001010 a
b01010101010101011010101010001010 b
1c
1j
#39500000
0!
0+
0/
0F
0P
0V
0\
0c
0j
#40000000
1!
1+
1/
b01010101010101011010101010001001 <
1F
1P
1V
1\
b01010101010101011010101010001001 a
b01010101010101011010101010001001 b
1c
1j
#40500000
0!
0+
0/
0F
0P
0V
0\
0c
0j
#41000000
1!
1+
1/
b01010101010101011010101010001000 <
1F
1P
1V
1\
b01010101010101011010101010001000 a
b01010101010101011010101010001000 b
1c
1j
#41500000
0!
0+
0/
0F
0P
0V
0\
0c
0j
#42000000
1!
1+
1/
b01010101010101011010101010000111 <
1F
1P
1V
1\
b01010101010101011010101010000111 a
b01010101010101011010101010000111 b
1c
1j
#42500000
0!
0+
0/
0F
0P
0V
0\
0c
0j
#43000000
1!
1+
1/
b01010101010101011010101010000110 <
1F
1P
1V
1\
b01010101010101011010101010000110 a
b01010101010101011010101010000110 b
1c
1j
#43500000
0!
0+
0/
0F
0P
0V
0\
0c
0j
#44000000
1!
1+
1/
b01010101010101011010101010000101 <
1F
1P
1V
1\
b01010101010101011010101010000101 a
b01010101010101011010101010000101 b
1c
1j
#44500000
0!
0+
0/
0F
0P
0V
0\
0c
0j
#45000000
1!
1+
1/
b01010101010101011010101010000100 <
1F
1P
1V
1\
b01010101010101011010101010000100 a
b01010101010101011010101010000100 b
1c
1j
#45500000
0!
0+
0/
0F
0P
0V
0\
0c
0j
#46000000
1!
1+
1/
b01010101010101011010101010000011 <
1F
1P
1V
1\
b01010101010101011010101010000011 a
b01010101010101011010101010000011 b
1c
1j
#46500000
0!
0+
0/
0F
0P
0V
0\
0c
0j
#47000000
1!
1+
1/
b01010101010101011010101010000010 <
1F
1P
1V
1\
b01010101010101011010101010000010 a
b01010101010101011010101010000010 b
1c
1j
#47500000
0!
0+
0/
0F
0P
0V
0\
0c
0j
#48000000
1!
1+
1/
b01010101010101011010101010000001 <
1F
1P
1V
1\
b01010101010101011010101010000001 a
b01010101010101011010101010000001 b
1c
1j
#48500000
0!
0+
0/
0F
0P
0V
0\
0c
0j
#49000000
1!
1+
1/
b01010101010101011010101010000000 <
1F
1P
1V
1\
b01010101010101011010101010000000 a
b01010101010101011010101010000000 b
1c
1j
#49500000
0!
0+
0/
0F
0P
0V
0\
0c
0j
#50000000
1!
1+
1/
b01010101010101011010101001111111 <
1F
1P
1V
1\
b01010101010101011010101001111111 a
b01010101010101011010101001111111 b
1c
1j
#50500000
0!
0+
0/
0F
0P
0V
0\
0c
0j
#51000000
1!
1+
1/
b01010101010101011010101001111110 <
1F
1P
1V
1\
b01010101010101011010101001111110 a
b01010101010101011010101001111110 b
1c
1j
#51500000
0!
0+
0/
0F
0P
0V
0\
0c
0j
#52000000
1!
1+
1/
b01010101010101011010101001111101 <
1F
1P
1V
1\
b01010101010101011010101001111101 a
b01010101010101011010101001111101 b
1c
1j
#52500000
0!
0+
0/
0F
0P
0V
0\
0c
0j
#53000000
1!
1+
1/
b01010101010101011010101001111100 <
1F
1P
1V
1\
b01010101010101011010101001111100 a
b01010101010101011010101001111100 b
1c
1j
#53500000
0!
0+
0/
0F
0P
0V
0\
0c
0j
#54000000
1!
1+
1/
b01010101010101011010101001111011 <
1F
1P
1V
1\
b01010101010101011010101001111011 a
b01010101010101011010101001111011 b
1c
1j
#54500000
0!
0+
0/
0F
0P
0V
0\
0c
0j
#55000000
1!
1+
1/
b01010101010101011010101001111010 <
1F
1P
1V
1\
b01010101010101011010101001111010 a
b01010101010101011010101001111010 b
1c
1j
#55500000
0!
0+
0/
0F
0P
0V
0\
0c
0j
#56000000
1!
1+
1/
b01010101010101011010101001111001 <
1F
1P
1V
1\
b01010101010101011010101001111001 a
b01010101010101011010101001111001 b
1c
1j
#56500000
0!
0+
0/
0F
0P
0V
0\
0c
0j
#57000000
1!
1+
1/
b01010101010101011010101001111000 <
1F
1P
1V
1\
b01010101010101011010101001111000 a
b01010101010101011010101001111000 b
1c
1j
#57500000
0!
0+
0/
0F
0P
0V
0\
0c
0j
#58000000
1!
1+
1/
b01010101010101011010101001110111 <
1F
1P
1V
1\
b01010101010101011010101001110111 a
b01010101010101011010101001110111 b
1c
1j
#58500000
0!
0+
0/
0F
0P
0V
0\
0c
0j
#59000000
1!
1+
1/
b01010101010101011010101001110110 <
1F
1P
1V
1\
b01010101010101011010101001110110 a
b01010101010101011010101001110110 b
1c
1j
#59500000
0!
0+
0/
0F
0P
0V
0\
0c
0j
#60000000
1!
1+
1/
b01010101010101011010101001110101 <
1F
1P
1V
1\
b01010101010101011010101001110101 a
b01010101010101011010101001110101 b
1c
1j
#60500000
0!
0+
0/
0F
0P
0V
0\
0c
0j
#61000000
1!
1+
1/
b01010101010101011010101001110100 <
1F
1P
1V
1\
b01010101010101011010101001110100 a
b01010101010101011010101001110100 b
1c
1j
#61500000
0!
0+
0/
0F
0P
0V
0\
0c
0j
#62000000
1!
1+
1/
b01010101010101011010101001110011 <
1F
1P
1V
1\
b01010101010101011010101001110011 a
b01010101010101011010101001110011 b
1c
1j
#62500000
0!
0+
0/
0F
0P
0V
0\
0c
0j
#63000000
1!
1+
1/
b01010101010101011010101001110010 <
1F
1P
1V
1\
b01010101010101011010101001110010 a
b01010101010101011010101001110010 b
1c
1j
#63500000
0!
0+
0/
0F
0P
0V
0\
0c
0j
#64000000
1!
1+
1/
b01010101010101011010101001110001 <
1F
1P
1V
1\
b01010101010101011010101001110001 a
b01010101010101011010101001110001 b
1c
1j
#64500000
0!
0+
0/
0F
0P
0V
0\
0c
0j
#65000000
1!
1+
1/
b01010101010101011010101001110000 <
1F
1P
1V
1\
b01010101010101011010101001110000 a
b01010101010101011010101001110000 b
1c
1j
#65500000
0!
0+
0/
0F
0P
0V
0\
0c
0j
#66000000
1!
1+
1/
b01010101010101011010101001101111 <
1F
1P
1V
1\
b01010101010101011010101001101111 a
b01010101010101011010101001101111 b
1c
1j
#66500000
0!
0+
0/
0F
0P
0V
0\
0c
0j
#67000000
1!
1+
1/
b01010101010101011010101001101110 <
1F
1P
1V
1\
b01010101010101011010101001101110 a
b01010101010101011010101001101110 b
1c
1j
#67500000
0!
0+
0/
0F
0P
0V
0\
0c
0j
#68000000
1!
1+
1/
b01010101010101011010101001101101 <
1F
1P
1V
1\
b01010101010101011010101001101101 a
b01010101010101011010101001101101 b
1c
1j
#68500000
0!
0+
0/
0F
0P
0V
0\
0c
0j
#69000000
1!
1+
1/
b01010101010101011010101001101100 <
1F
1P
1V
1\
b01010101010101011010101001101100 a
b01010101010101011010101001101100 b
1c
1j
#69500000
0!
0+
0/
0F
0P
0V
0\
0c
0j
#70000000
1!
1+
1/
b01010101010101011010101001101011 <
1F
1P
1V
1\
b01010101010101011010101001101011 a
b01010101010101011010101001101011 b
1c
1j
#70500000
0!
0+
0/
0F
0P
0V
0\
0c
0j
#71000000
1!
1+
1/
b01010101010101011010101001101010 <
1F
1P
1V
1\
b01010101010101011010101001101010 a
b01010101010101011010101001101010 b
1c
1j
#71500000
0!
0+
0/
0F
0P
0V
0\
0c
0j
#72000000
1!
1+
1/
b01010101010101011010101001101001 <
1F
1P
1V
1\
b01010101010101011010101001101001 a
b01010101010101011010101001101001 b
1c
1j
#72500000
0!
0+
0/
0F
0P
0V
0\
0c
0j
#73000000
1!
1+
1/
b01010101010101011010101001101000 <
1F
1P
1V
1\
b01010101010101011010101001101000 a
b01010101010101011010101001101000 b
1c
1j
#73500000
0!
0+
0/
0F
0P
0V
0\
0c
0j
#74000000
1!
1+
1/
b01010101010101011010101001100111 <
1F
1P
1V
1\
b01010101010101011010101001100111 a
b01010101010101011010101001100111 b
1c
1j
#74500000
0!
0+
0/
0F
0P
0V
0\
0c
0j
#75000000
1!
1+
1/
b01010101010101011010101001100110 <
1F
1P
1V
1\
b01010101010101011010101001100110 a
b01010101010101011010101001100110 b
1c
1j
#75500000
0!
0+
0/
0F
0P
0V
0\
0c
0j
#76000000
1!
1+
1/
b01010101010101011010101001100101 <
1F
1P
1V
1\
b01010101010101011010101001100101 a
b01010101010101011010101001100101 b
1c
1j
#76500000
0!
0+
0/
0F
0P
0V
0\
0c
0j
#77000000
1!
1+
1/
b01010101010101011010101001100100 <
1F
1P
1V
1\
b01010101010101011010101001100100 a
b01010101010101011010101001100100 b
1c
1j
#77500000
0!
0+
0/
0F
0P
0V
0\
0c
0j
#78000000
1!
1+
1/
b01010101010101011010101001100011 <
1F
1P
1V
1\
b01010101010101011010101001100011 a
b01010101010101011010101001100011 b
1c
1j
#78500000
0!
0+
0/
0F
0P
0V
0\
0c
0j
#79000000
1!
1+
1/
b01010101010101011010101001100010 <
1F
1P
1V
1\
b01010101010101011010101001100010 a
b01010101010101011010101001100010 b
1c
1j
#79500000
0!
0+
0/
0F
0P
0V
0\
0c
0j
#80000000
1!
1+
1/
b01010101010101011010101001100001 <
1F
1P
1V
1\
b01010101010101011010101001100001 a
b01010101010101011010101001100001 b
1c
1j
#80500000
0!
0+
0/
0F
0P
0V
0\
0c
0j
#81000000
1!
1+
1/
b01010101010101011010101001100000 <
1F
1P
1V
1\
b01010101010101011010101001100000 a
b01010101010101011010101001100000 b
1c
1j
#81500000
0!
0+
0/
0F
0P
0V
0\
0c
0j
#82000000
1!
1+
1/
b01010101010101011010101001011111 <
1F
1P
1V
1\
b01010101010101011010101001011111 a
b01010101010101011010101001011111 b
1c
1j
#82500000
0!
0+
0/
0F
0P
0V
0\
0c
0j
#83000000
1!
1+
1/
b01010101010101011010101001011110 <
1F
1P
1V
1\
b01010101010101011010101001011110 a
b01010101010101011010101001011110 b
1c
1j
#83500000
0!
0+
0/
0F
0P
0V
0\
0c
0j
#84000000
1!
1+
1/
b01010101010101011010101001011101 <
1F
1P
1V
1\
b01010101010101011010101001011101 a
b01010101010101011010101001011101 b
1c
1j
#84500000
0!
0+
0/
0F
0P
0V
0\
0c
0j
#85000000
1!
1+
1/
b01010101010101011010101001011100 <
1F
1P
1V
1\
b01010101010101011010101001011100 a
b01010101010101011010101001011100 b
1c
1j
#85500000
0!
0+
0/
0F
0P
0V
0\
0c
0j
#86000000
1!
1+
1/
b01010101010101011010101001011011 <
1F
1P
1V
1\
b01010101010101011010101001011011 a
b01010101010101011010101001011011 b
1c
1j
#86500000
0!
0+
0/
0F
0P
0V
0\
0c
0j
#87000000
1!
1+
1/
b01010101010101011010101001011010 <
1F
1P
1V
1\
b01010101010101011010101001011010 a
b01010101010101011010101001011010 b
1c
1j
#87500000
0!
0+
0/
0F
0P
0V
0\
0c
0j
#88000000
1!
1+
1/
b01010101010101011010101001011001 <
1F
1P
1V
1\
b01010101010101011010101001011001 a
b01010101010101011010101001011001 b
1c
1j
#88500000
0!
0+
0/
0F
0P
0V
0\
0c
0j
#89000000
1!
1+
1/
b01010101010101011010101001011000 <
1F
1P
1V
1\
b01010101010101011010101001011000 a
b01010101010101011010101001011000 b
1c
1j
#89500000
0!
0+
0/
0F
0P
0V
0\
0c
0j
